Assignment 1: Step Detection • HINF5300
…
Conclusion

Here’s a fully fledged pipeline function for this pipeline:

detect_steps(here::here("inst","extdata", "acce.csv"))
#> Rows: 15179 Columns: 4
#> ── Column specification ────────────────────────────────────────────────────────
#> Delimiter: ","
#> dbl (4): X1, X2, X3, X4
#> 
#> ℹ Use `spec()` to retrieve the full column specification for this data.
#> ℹ Specify the column types or set `show_col_types = FALSE` to quiet this message.
#> $data
#> # A tibble: 15,179 × 6
#>    timestamp               X     Y     Z   mag clean_signal
#>    <dttm>              <dbl> <dbl> <dbl> <dbl>        <dbl>
#>  1 2022-09-22 00:38:26 0.736 -3.71 -9.57 10.3       NA     
#>  2 2022-09-22 00:38:26 0.865 -3.38 -9.50 10.1       NA     
#>  3 2022-09-22 00:38:26 0.969 -3.04 -9.46  9.98       0.0189
#>  4 2022-09-22 00:38:26 0.875 -3.15 -9.34  9.90       0.0456
#>  5 2022-09-22 00:38:26 0.899 -3.37 -9.24  9.88       0.0894
#>  6 2022-09-22 00:38:26 0.767 -3.53 -9.01  9.70       0.153 
#>  7 2022-09-22 00:38:26 0.623 -3.60 -8.77  9.50       0.238 
#>  8 2022-09-22 00:38:26 0.650 -3.77 -8.78  9.57       0.345 
#>  9 2022-09-22 00:38:26 0.994 -4.41 -8.58  9.69       0.476 
#> 10 2022-09-22 00:38:26 0.426 -4.60 -8.20  9.42       0.629 
#> # … with 15,169 more rows
…
